{
  "page": 3,
  "perPage": 30,
  "total": 158,
  "pageCount": 6,
  "posts": [
    {
      "slug": "cbjq-unzip",
      "title": "记录解包尘白禁区以获得涩涩（？）CG",
      "description": "受人委托解包尘白禁区的加载图CG，记录一下流程，方便日后复习",
      "published": "2025-08-23",
      "image": null,
      "pinned": false,
      "draft": false,
      "hide": false,
      "tags": []
    },
    {
      "slug": "hack-lskypro",
      "title": "记录破解兰空图床（Lsky-Pro）",
      "description": "兰空图床是一个简洁易用（？）的图床框架，抓包了一下激活过程，这玩意居然没加密...记录一下",
      "published": "2025-08-19",
      "image": null,
      "pinned": false,
      "draft": false,
      "hide": false,
      "tags": []
    },
    {
      "slug": "hack-typora",
      "title": "Typora免付费激活",
      "description": "Typora是一个简洁易用（？）的MarkDown编辑器，不想交钱？改几行文件就破解！",
      "published": "2025-08-14",
      "image": "https://raw-posts.2x.nz/img/hack-typora-2025-08-20-21-08-22-image.webp",
      "pinned": false,
      "draft": false,
      "hide": false,
      "tags": []
    },
    {
      "slug": "atpx-fun-blog",
      "title": "atpx.com 一个有趣的神秘博客",
      "description": "今天在床上打滚突然找到一个神秘博客，还挺有意思的",
      "published": "2025-08-13",
      "image": null,
      "pinned": false,
      "draft": false,
      "hide": false,
      "tags": []
    },
    {
      "slug": "exhentai",
      "title": "手把手教你进入e站里站（exhentai.org）",
      "description": "上周也是突然想到e站这个神奇的网站，但是2年的账号居然进不了里站，这里总结一些进里站的心路历程~",
      "published": "2025-08-12",
      "image": null,
      "pinned": false,
      "draft": false,
      "hide": false,
      "tags": []
    },
    {
      "slug": "you-is-me-huh",
      "title": "你是我吗？",
      "description": "博客开源了就会有很多小笨蛋Fork完改也改不全，导致评论也评论到我这来了，浏览量统计也来我这来了\\U0001F605",
      "published": "2025-08-12",
      "image": null,
      "pinned": false,
      "draft": false,
      "hide": false,
      "tags": []
    },
    {
      "slug": "tg-emoji",
      "title": "教你制作自己的Telegram Emoji！",
      "description": "欧呦不赖，开了个大会员终于可以戴上Netlify的表情咯~",
      "published": "2025-08-11",
      "image": null,
      "pinned": false,
      "draft": false,
      "hide": false,
      "tags": []
    },
    {
      "slug": "folo-verification",
      "title": "认证为Folo的创作者",
      "description": "Folo是一个RSS聚合平台，在上面不仅可以订阅很多优质的RSS源，也可以认领自己的RSS源",
      "published": "2025-08-10",
      "image": "https://raw-posts.2x.nz/img/folo-verification-2025-08-10-21-31-04-image.webp",
      "pinned": false,
      "draft": false,
      "hide": false,
      "tags": []
    },
    {
      "slug": "ip6-arpa",
      "title": "IPv6反解域名是什么？嫩长一坨还能托管到Cloudflare？SSL签发也没问题？",
      "description": "你是否见过类似 e.b.9.f.0.7.4.0.1.0.0.2.ip6.arpa 这样的域名，今天就教你搞一个！",
      "published": "2025-08-08",
      "image": null,
      "pinned": false,
      "draft": false,
      "hide": false,
      "tags": []
    },
    {
      "slug": "netlify-oss",
      "title": "有自己的开源项目？来申请Netlify的Open Source计划！",
      "description": "昨天在乱翻Netlify的网站，突然发现了一个开源计划的申请入口，故申请，没想到今天就通过了\\U0001F60B",
      "published": "2025-08-08",
      "image": null,
      "pinned": false,
      "draft": false,
      "hide": false,
      "tags": []
    },
    {
      "slug": "github-edu",
      "title": "Github学生认证 + GitHub Education福利大全",
      "description": "Github学生认证教程，以及通过验证后可领取的各种免费福利，包括免费域名等！",
      "published": "2025-08-07",
      "image": null,
      "pinned": false,
      "draft": false,
      "hide": false,
      "tags": []
    },
    {
      "slug": "qiyewx-deepseek",
      "title": "你说什么？企业微信能免费用Deepseek？！还能调成猫娘？！！",
      "description": "今天无意中建了个企业微信群，然后就发现可以加智能体，然后就调了个猫娘出来...",
      "published": "2025-08-06",
      "image": null,
      "pinned": false,
      "draft": false,
      "hide": false,
      "tags": []
    },
    {
      "slug": "giscus-akismet",
      "title": "你是否在寻找一个评论系统而又不想自托管？又饱受垃圾评论的叨扰？",
      "description": "Giscus就是这样一个很好的评论区，它基于Github Discussion，无需自托管，无需你管理账号，仅需引入一个JS即可用！",
      "published": "2025-08-03",
      "image": "https://raw-posts.2x.nz/img/giscus-akismet-2025-08-04-12-14-21-image.webp",
      "pinned": false,
      "draft": false,
      "hide": false,
      "tags": []
    },
    {
      "slug": "hideimg",
      "title": "平平无奇的一张图，拉高曝光就能显现另一张图？",
      "description": "教你制作自己的“光棱坦克”！",
      "published": "2025-08-03",
      "image": null,
      "pinned": false,
      "draft": false,
      "hide": false,
      "tags": []
    },
    {
      "slug": "proxy-tgweb",
      "title": "大陆直连TG Web？触手可及！",
      "description": "TG Web采用前后端分离，前端可以部署到静态托管平台，而后端可以用各种服务反代",
      "published": "2025-08-01",
      "image": null,
      "pinned": false,
      "draft": false,
      "hide": false,
      "tags": []
    },
    {
      "slug": "self-host-matrix",
      "title": "QQ微信不够私密？自建自己的聊天服务器！",
      "description": "通过自建Synapse，用户可以通过Element等软件来直接在你的服务器上聊天",
      "published": "2025-08-01",
      "image": null,
      "pinned": false,
      "draft": false,
      "hide": false,
      "tags": []
    },
    {
      "slug": "eo-function",
      "title": "对标CF Worker？拿EdgeOne边缘函数做一个随机图API！",
      "description": "很早就知道EdgeOne边缘函数，一直都没来得及体验，今天上手后发现它真的很强大",
      "published": "2025-07-31",
      "image": null,
      "pinned": false,
      "draft": false,
      "hide": false,
      "tags": []
    },
    {
      "slug": "csp",
      "title": "CSP标头是什么？为什么有人能神不知鬼不觉地盗走你的信息？",
      "description": "CSP 是内容安全策略，它可以限制恶意脚本执行，从而降低 XSS 攻击带来的信息泄露风险",
      "published": "2025-07-30",
      "image": null,
      "pinned": false,
      "draft": false,
      "hide": false,
      "tags": []
    },
    {
      "slug": "improve-seo",
      "title": "如何提高网站的SEO？",
      "description": "很多人把网站做出来之后就不再维护了，但如果你希望搜索引擎更快收录并获得更好的排名，其实还有不少细节值得优化。",
      "published": "2025-07-29",
      "image": null,
      "pinned": false,
      "draft": false,
      "hide": false,
      "tags": []
    },
    {
      "slug": "why-not-icp",
      "title": "关于本站为什么不进行ICP备案",
      "description": "由于诸多原因，本站并未进行ICP备案，这里记录了一些原因",
      "published": "2025-07-28",
      "image": null,
      "pinned": false,
      "draft": false,
      "hide": false,
      "tags": []
    },
    {
      "slug": "wyy-timestrap",
      "title": "网易云音乐歌曲时间戳获取",
      "description": "如果你需要歌词时间戳，且歌曲为网易云提供，那么获取它将无比简单",
      "published": "2025-07-26",
      "image": null,
      "pinned": false,
      "draft": false,
      "hide": false,
      "tags": []
    },
    {
      "slug": "fuck-vocechat",
      "title": "记录人生中第一次破解软件！FKvocechat！",
      "description": "感兴趣的可以先去voce.chat购买一个Pro版本后再阅读此文~本文也是一个使用REST API通信的软件通用的破解教程",
      "published": "2025-07-22",
      "image": null,
      "pinned": false,
      "draft": false,
      "hide": false,
      "tags": []
    },
    {
      "slug": "cloudflare-bandwidth-alliance",
      "title": "国内对象存储免流量费？Cloudflare带宽联盟究竟是什么？",
      "description": "Cloudflare带宽联盟是一个多云服务商联合构建的服务体系，在指定的云服务商中，如果流量通过Cloudflare路由则不收取流量费用，用户仅需要支付存储费用",
      "published": "2025-07-21",
      "image": null,
      "pinned": false,
      "draft": false,
      "hide": false,
      "tags": []
    },
    {
      "slug": "self-host-fastip",
      "title": "都5202年了，还有人不会自建自己的Cloudflare/EdgeOne等各种CDN的优选？",
      "description": "自建各大CDN服务的优选域名非常简单，只需要先这样，再这样...但是踩坑的地方也不少...",
      "published": "2025-07-21",
      "image": null,
      "pinned": false,
      "draft": false,
      "hide": false,
      "tags": []
    },
    {
      "slug": "chevereto",
      "title": "教你搭建Chevereto这个超级强大的图床！",
      "description": "被宝塔开心版的站长推荐了Chevereto这个图床，刚好刚刚嫖了个免费的虚拟主机，让我们开始折腾！",
      "published": "2025-07-15",
      "image": "https://raw-posts.2x.nz/img/chevereto-f31ca517-8f5b-4e53-af08-c32aabc224ab.webp",
      "pinned": false,
      "draft": false,
      "hide": false,
      "tags": []
    },
    {
      "slug": "sixqi-py",
      "title": "我用Claude10分钟写了个六子棋...?",
      "description": "本来是不想写这种看起来就很简单的项目的，奈何群u苦苦哀求，只好实现",
      "published": "2025-07-13",
      "image": "https://raw-posts.2x.nz/img/sixqi-py-d359734c-1415-4ebc-8caf-4d807282fad6.webp",
      "pinned": false,
      "draft": false,
      "hide": false,
      "tags": []
    },
    {
      "slug": "static-web",
      "title": "N款CDN/静态托管服务商的优缺点比较",
      "description": "Serverless服务有很多，静态托管就是重中之重，来看看谁最稳定快速",
      "published": "2025-07-13",
      "image": "https://raw-posts.2x.nz/img/static-web-da8b7a38-7247-43af-b272-f012f2dd024d.webp",
      "pinned": false,
      "draft": false,
      "hide": false,
      "tags": []
    },
    {
      "slug": "cfpage-redirect",
      "title": "利用Cloudflare Page提供的重定向功能实现无损耗、不限数量的静态重定向！",
      "description": "Cloudflare的重定向规则非常强大，但是如果直接使用重定向规则创建批量重定向会消耗很多的配额",
      "published": "2025-07-12",
      "image": "https://raw-posts.2x.nz/img/cfpage-redirect-530d7a11-c9ea-45ed-905a-1e3965f3e3b3.webp",
      "pinned": false,
      "draft": false,
      "hide": false,
      "tags": []
    },
    {
      "slug": "vercel-deny",
      "title": "配置Vercel让ITDog测试全部403！",
      "description": "很讨厌别人用ITDog等拨测服务疯狂测试你的站点？拒绝他们！",
      "published": "2025-07-09",
      "image": "https://raw-posts.2x.nz/img/vercel-deny-d81562f3-8efb-45f3-8dd1-72cb9c032bc2.webp",
      "pinned": false,
      "draft": false,
      "hide": false,
      "tags": []
    },
    {
      "slug": "umami",
      "title": "让你的网站对接高级的Umami统计！",
      "description": "Umami是一个站点统计服务，只需要插入一行js即可获得高效，易读，可观察性的站点统计！",
      "published": "2025-07-05",
      "image": "https://raw-posts.2x.nz/img/umami-6eedb10a-08d3-4268-8caf-370bc093a668.webp",
      "pinned": false,
      "draft": false,
      "hide": false,
      "tags": []
    }
  ]
}