{
  "page": 1,
  "perPage": 30,
  "total": 158,
  "pageCount": 6,
  "posts": [
    {
      "slug": "auto-pr-link",
      "title": "网站加友链的最佳姿势是什么？当然是自动化啦！",
      "description": "如果你经常一觉醒来就看到一堆友链 PR，还得逐个检查格式、顺手帮对方修语法错误，那把这件事自动化确实会轻松很多。",
      "published": "2026-02-17",
      "image": "https://raw-posts.2x.nz/img/auto-pr-link-auto-pr-link-12.png",
      "pinned": false,
      "draft": false,
      "hide": false,
      "tags": []
    },
    {
      "slug": "web-bomb",
      "title": "如何在你的网站上放一个压缩炸弹？",
      "description": "你知道压缩炸弹吗？就是那种看着人畜无害小小的只有几kb的文件，但是解压后却有高达几十几百G的文件的神秘东西！",
      "published": "2026-02-14",
      "image": "https://raw-posts.2x.nz/img/web-bomb-web-bomb.png",
      "pinned": false,
      "draft": false,
      "hide": false,
      "tags": []
    },
    {
      "slug": "aliyun-icp-tls-bug",
      "title": "阿里云网关 DPI 阻断绕过漏洞分析报告：TLS Client Hello 分片逃逸",
      "description": "",
      "published": "2026-02-11",
      "image": null,
      "pinned": false,
      "draft": false,
      "hide": false,
      "tags": []
    },
    {
      "slug": "deepwiki",
      "title": "论DeepWiki为什么是神！",
      "description": "你是否在Github有一些脍炙人口的开源项目？快看看有没有被DeepWiki收录！获得免费！强大！易用！实时更新的知识库！",
      "published": "2026-02-11",
      "image": "https://raw-posts.2x.nz/img/deepwiki-deepwiki.png",
      "pinned": false,
      "draft": false,
      "hide": false,
      "tags": []
    },
    {
      "slug": "review-ddos",
      "title": "连着被打了4个月，来做一个彻头彻尾的复盘吧！",
      "description": "自25年11月至今，该网站被连续不断攻击了总计高达几百TiB，攻击峰值高达6.8Gbps，且攻击者从最开始的纯印度IP攻击到如今的纯中国大陆IP攻击。今天，就跟大家谈谈攻击者为什么要攻击，他们想得到什么，以及如何防范DDOS",
      "published": "2026-02-10",
      "image": "https://raw-posts.2x.nz/img/review-ddos-review-ddos-5.png",
      "pinned": false,
      "draft": false,
      "hide": false,
      "tags": []
    },
    {
      "slug": "watermark",
      "title": "你需要为你的网站上水印吗？水印怎么打才有效？",
      "description": "很早之前，我得知了我的文章被盗了，当时觉得也没啥，今天又翻到当时的聊天记录，还是觉得就算文章被盗了，也应该让看文章的所有用户都知道原文章到底是谁写的",
      "published": "2026-02-04",
      "image": "https://raw-posts.2x.nz/img/watermark-watermark.webp",
      "pinned": false,
      "draft": false,
      "hide": false,
      "tags": []
    },
    {
      "slug": "coxp",
      "title": "你真的懂了浏览器跨域吗？COOP，COEP，CORP，CORS都是管什么的？",
      "description": "你是否在浏览或开发网站时在浏览器控制台看到过“由于跨域XXX，已阻止加载XXX”，或“200 Failed”状态？今天带你搞懂浏览器的跨域安全模型",
      "published": "2026-02-02",
      "image": "https://raw-posts.2x.nz/img/coxp-coxp.webp",
      "pinned": false,
      "draft": false,
      "hide": false,
      "tags": []
    },
    {
      "slug": "avatar",
      "title": "让我们来看看图片防盗链各大厂做的怎么样！",
      "description": "今天突发奇想就像试试抓抓各大厂的头像接口，没想到有挺多根本没有防盗链",
      "published": "2026-02-01",
      "image": "https://raw-posts.2x.nz/img/avatar-avatar.webp",
      "pinned": false,
      "draft": false,
      "hide": false,
      "tags": []
    },
    {
      "slug": "cookie-consent",
      "title": "想要一个Cookie管理器？无需手搓！",
      "description": "Cookie Consent是一个开源简单实现的Cookie管理器，能让您的网站GDPR合规，仅需复制粘贴！",
      "published": "2026-01-30",
      "image": "https://raw-posts.2x.nz/img/cookie-consent-cookie-consent.webp",
      "pinned": false,
      "draft": false,
      "hide": false,
      "tags": []
    },
    {
      "slug": "warden-worker",
      "title": "你可曾想过，直接将BitWarden部署到Cloudflare Worker？",
      "description": "warden-worker就是这样一个项目，它将Rust编译为WASM，然后部署到Cloudflare Worker，无需VPS，无需家里云，只需点点鼠标就可免费用上自己的密码托管！",
      "published": "2026-01-26",
      "image": "https://raw-posts.2x.nz/img/warden-worker-warden-worker.webp",
      "pinned": false,
      "draft": false,
      "hide": false,
      "tags": []
    },
    {
      "slug": "del-git-commit",
      "title": "如何让一个文件在Git提交中永远消失？如何丢掉其中一条提交并保持逻辑完整？",
      "description": "我们有时候可能会误操作导致提交了一个不该提交的文件，当你发现的时候，在此之后已经堆砌了很多新的提交...",
      "published": "2026-01-23",
      "image": "https://raw-posts.2x.nz/img/del-git-commit-del-git-commit-1.webp",
      "pinned": false,
      "draft": false,
      "hide": false,
      "tags": []
    },
    {
      "slug": "eo-umami",
      "title": "WTF？！直接将Umami部署到EdgeOne Pages？扔掉VPS！直接跑在云函数！",
      "description": "我们都知道，EdgeOne Pages有个完整的Node.js环境，那Umami是Next.js也基于Node.js，那我们是不是可以...",
      "published": "2026-01-19",
      "image": "https://raw-posts.2x.nz/img/eo-umami-eo-umami-1.webp",
      "pinned": false,
      "draft": false,
      "hide": false,
      "tags": []
    },
    {
      "slug": "waf",
      "title": "静态网站也需要WAF？Cloudflare不需要但是EdgeOne/ESA需要！",
      "description": "在几周前，我的网站累计被DDoS了约100TB的流量，哪怕我是静态网站，并不会被“打死”，但因为流量过大，还是被EdgeOne取消接入了，其实这件事本不会发生...",
      "published": "2026-01-17",
      "image": "https://raw-posts.2x.nz/img/waf-waf.webp",
      "pinned": false,
      "draft": false,
      "hide": false,
      "tags": []
    },
    {
      "slug": "aliyun-ecs-4rm",
      "title": "什么？4元每月200G的服务器？还是阿里的？还有联通9929精品回程？？",
      "description": "通过创建抢占型实例+每月免费CDT 200G流量包，你几乎只需要付很少的硬盘费！",
      "published": "2026-01-16",
      "image": "https://raw-posts.2x.nz/img/aliyun-ecs-4rm-aliyun-ecs-4rm.webp",
      "pinned": false,
      "draft": false,
      "hide": false,
      "tags": []
    },
    {
      "slug": "eovsesa",
      "title": "EO VS ESA，谁才是国内CDNの王？！",
      "description": "EdgeOne和ESA都是非常好的免费国内CDN，常规用起来几乎一模一样，今天我们就来让他俩一决雌雄！",
      "published": "2026-01-16",
      "image": "https://raw-posts.2x.nz/img/eovsesa-eovsesa.webp",
      "pinned": false,
      "draft": false,
      "hide": false,
      "tags": []
    },
    {
      "slug": "static-redirect-group",
      "title": "完全免费！搭建一个自己的短链服务！",
      "description": "利用 Cloudflare Worker 和 GitHub，可以搭建一个纯静态、可自动维护的短链服务",
      "published": "2026-01-14",
      "image": "https://raw-posts.2x.nz/img/static-redirect-group-static-redirect-group.webp",
      "pinned": false,
      "draft": false,
      "hide": false,
      "tags": []
    },
    {
      "slug": "fenliu",
      "title": "网站分流怎么做？全球秒开！有点坐牢，但是好玩！",
      "description": "网站分流看着很难，实际上一点都不简单，如果你也感兴趣（想坐牢），那就来试试8！",
      "published": "2026-01-11",
      "image": "https://raw-posts.2x.nz/img/fenliu-fenliu.webp",
      "pinned": false,
      "draft": false,
      "hide": false,
      "tags": []
    },
    {
      "slug": "cf-fastip",
      "title": "试试Cloudflare IP优选！让Cloudflare在国内再也不是减速器！",
      "description": "使用SaaS、Worker以及各种奇技淫巧来让你的网站解析的IP进行分流优选，提高网站可用性和速度",
      "published": "2026-01-10",
      "image": "https://raw-posts.2x.nz/img/cf-fastip-cf-fastip-11.webp",
      "pinned": false,
      "draft": false,
      "hide": false,
      "tags": []
    },
    {
      "slug": "double-monitior",
      "title": "你有一个全球网站？如何做好监控？",
      "description": "如果你正好在运营一个全球性的网站，它可能在不同地区有不同节点，我们要如何做好宕机提醒？",
      "published": "2026-01-09",
      "image": "https://raw-posts.2x.nz/img/double-monitior-double-monitior.webp",
      "pinned": false,
      "draft": false,
      "hide": false,
      "tags": []
    },
    {
      "slug": "shorter-url",
      "title": "无需服务器！从零教你自建一个短链服务！",
      "description": "你是否有一个短域名？没有也没关系，马上教你从域名开始搭建一个短链服务！",
      "published": "2026-01-09",
      "image": "https://raw-posts.2x.nz/img/shorter-url-shorter-url.webp",
      "pinned": false,
      "draft": false,
      "hide": false,
      "tags": []
    },
    {
      "slug": "uptimeflare",
      "title": "超高校级的监控服务：UptimeFlare！基于CF Worker！自托管！声明式！新手友好！",
      "description": "谁不想拥有一个监控自己服务的服务呢？",
      "published": "2026-01-02",
      "image": "https://raw-posts.2x.nz/img/uptimeflare-uptimeflare.webp",
      "pinned": false,
      "draft": false,
      "hide": false,
      "tags": []
    },
    {
      "slug": "random-url-gen",
      "title": "完全免费！从架构，开发到部署，一条龙实打实的教你做一言/随机图等随机URL的最佳实践",
      "description": "我曾于2024搭建了第一个随机图网站，最近几周又深度研究了类似项目，发现这类项目有很多坑也有很多神秘的捷径，并且某些架构还可以做到“永生”...",
      "published": "2025-12-29",
      "image": "https://raw-posts.2x.nz/img/random-url-gen-random-url-gen.webp",
      "pinned": false,
      "draft": false,
      "hide": false,
      "tags": []
    },
    {
      "slug": "umami-migration",
      "title": "Umami Cloud迁移到本地踩坑记录",
      "description": "早期的我很有先见之明，在使用Umami的时候是自建的，但是不久后因为想要全上云，又用回了Umami Cloud，但是现在访问记录激增，我又不得不迁移到本地...",
      "published": "2025-12-05",
      "image": "https://raw-posts.2x.nz/img/umami-migration-umami-migration.webp",
      "pinned": false,
      "draft": false,
      "hide": false,
      "tags": []
    },
    {
      "slug": "anuneko",
      "title": "上手米哈游AI，然后把它逆了！",
      "description": "AnuNeko是一只会哈气的橘猫...其实不是，AnuNeko是由米哈游创始人做的AI大模型，会哈气。于是便做个QQBot给群友玩",
      "published": "2025-12-02",
      "image": "https://raw-posts.2x.nz/img/anuneko-anuneko.webp",
      "pinned": false,
      "draft": false,
      "hide": false,
      "tags": []
    },
    {
      "slug": "serverless-function",
      "title": "盘点那些好用的Serverless（云函数）！",
      "description": "你是否为了搭建一个网站而买了一台VPS，然后安装宝塔或1Panel再安装Nginx等等等等？现在这些统统不要！只需要稍加学习，你就可以得到一个免费的高可用的托管服务！",
      "published": "2025-11-25",
      "image": "https://raw-posts.2x.nz/img/serverless-function-serverless-function.webp",
      "pinned": false,
      "draft": false,
      "hide": false,
      "tags": []
    },
    {
      "slug": "remote",
      "title": "出门在外，如何优雅、高效、流畅地远程自家电脑？",
      "description": "出门在外时，身边未必没有电脑，但真正熟悉、完整的工作环境往往还是家里的那台主机。因此，如何高效远程访问自家电脑，就成了一个很实际的问题。",
      "published": "2025-11-24",
      "image": "https://raw-posts.2x.nz/img/remote-9207_112_29_106_130_rx7fsq.webp",
      "pinned": false,
      "draft": false,
      "hide": false,
      "tags": []
    },
    {
      "slug": "win11-to-win10",
      "title": "Win11保留数据无损降级Win10！",
      "description": "我真的受够了Win11那黏黏的感觉了，什么？能降级？还是官方手段？还能保留数据？？?",
      "published": "2025-11-23",
      "image": "https://raw-posts.2x.nz/img/win11-to-win10-win11-to-win10.webp",
      "pinned": false,
      "draft": false,
      "hide": false,
      "tags": []
    },
    {
      "slug": "swup-js",
      "title": "解决困扰我多时的JS重复请求问题",
      "description": "这篇文章记录了博客在接入动态访问量统计后，因 Swup 处理不当而产生重复请求的问题，以及最终的排查与修复过程",
      "published": "2025-11-18",
      "image": "https://raw-posts.2x.nz/img/swup-js-swup-js.webp",
      "pinned": false,
      "draft": false,
      "hide": false,
      "tags": []
    },
    {
      "slug": "ms-e3",
      "title": "永久免费OneDrive 5T，MS 365 E3保姆级拿下教程！",
      "description": "曾经免费拿E5，但是封车很久了，现在E3又来了，快上车！",
      "published": "2025-11-14",
      "image": "https://raw-posts.2x.nz/img/ms-e3-ms-e3.webp",
      "pinned": false,
      "draft": false,
      "hide": false,
      "tags": []
    },
    {
      "slug": "onedrive-index",
      "title": "来！让我们用Vercel来分享你的OneDrive！",
      "description": "利用onedrive-index这个项目可以将你的OneDrive映射到公网，轻松分发资源！",
      "published": "2025-11-14",
      "image": "https://raw-posts.2x.nz/img/onedrive-index-onedrive-index.webp",
      "pinned": false,
      "draft": false,
      "hide": false,
      "tags": []
    }
  ]
}