{
  "page": 4,
  "perPage": 30,
  "total": 158,
  "pageCount": 6,
  "posts": [
    {
      "slug": "ipfs-api",
      "title": "分享一个IPFS图片API",
      "description": "很早前我就用过xLog，这次逆向出了它的图床API，可以用来暂时存放图片！",
      "published": "2025-07-03",
      "image": "https://raw-posts.2x.nz/img/ipfs-api-2a104c9e-195b-4f16-b080-ee76c763a80a.webp",
      "pinned": false,
      "draft": false,
      "hide": false,
      "tags": []
    },
    {
      "slug": "secbit",
      "title": "测评一下SecBit MCDN HK区域的质量",
      "description": "在我哥们的帮助下也是成功通过我的博客拿到了Secbit的免费MCDN服务，再见EdgeOne（",
      "published": "2025-07-01",
      "image": "https://raw-posts.2x.nz/img/secbit-8fd87117-9ab0-4ae5-b9b5-8202f47fbc0b.webp",
      "pinned": false,
      "draft": false,
      "hide": false,
      "tags": []
    },
    {
      "slug": "meme-api",
      "title": "meme-generator部署指南以及对接Koishi",
      "description": "很早之前我就很好奇那些用群友的头像做的表情包真的是人工p的吗，实则不然！",
      "published": "2025-06-29",
      "image": "https://raw-posts.2x.nz/img/meme-api-ee29b679-3355-453e-917b-2b85ae9106a0.webp",
      "pinned": false,
      "draft": false,
      "hide": false,
      "tags": []
    },
    {
      "slug": "eo-cf",
      "title": "EdgeOne + Cloudflare，我们天下无敌！",
      "description": "EdgeOne的低延迟+Cloudflare的强大业务！我都不敢想这有多爽！",
      "published": "2025-06-26",
      "image": "https://raw-posts.2x.nz/img/eo-cf-50839e45-bb5c-4fd5-8e88-3959295fb9bb.webp",
      "pinned": false,
      "draft": false,
      "hide": false,
      "tags": []
    },
    {
      "slug": "edgeone",
      "title": "关于我折腾了一晚上 EdgeOne",
      "description": "本来对EdgeOne不感兴趣的，但是后来被引诱说没备案可以用国内节点，虽然好像当事者是开玩笑但是节点速度真的不错",
      "published": "2025-06-21",
      "image": "https://raw-posts.2x.nz/img/edgeone-3a9096b2-cee8-448b-952a-d9f68cb01be6.webp",
      "pinned": false,
      "draft": false,
      "hide": false,
      "tags": []
    },
    {
      "slug": "static-view",
      "title": "静态博客也想展示文章浏览量？当然可以！",
      "description": "利用Umami等站点分析软件可以让管理员了解站点活跃度，但是如果我们想向用户展示一些数据呢？",
      "published": "2025-06-17",
      "image": "https://raw-posts.2x.nz/img/static-view-acacac41-e1e1-4a15-bdae-05683656916c.webp",
      "pinned": false,
      "draft": false,
      "hide": false,
      "tags": []
    },
    {
      "slug": "aicode-prompt",
      "title": "AI写不出优质的代码？其实是你引导错了！",
      "description": "如今，大语言模型百花齐放，有开山鼻祖OpenAI的ChatGPT系列，也有Anthropic开发的代码神器Claude系列。但是，哪怕模型再先进再聪明，如果用它的人使用的方法不对，那再好的模型用起来也是笨笨的",
      "published": "2025-06-16",
      "image": "https://raw-posts.2x.nz/img/aicode-prompt-65f8862e-2a66-4acc-8fef-c8b3dc7f5c29.webp",
      "pinned": false,
      "draft": false,
      "hide": false,
      "tags": []
    },
    {
      "slug": "nat1-web",
      "title": "NAT1开放内网网站",
      "description": "利用CF动态重定向透过STUN+Lucky WebHook实时更新STUN端口实现NAT1家宽建站",
      "published": "2025-05-30",
      "image": "https://raw-posts.2x.nz/img/nat1-web-0aa77bad-482a-4b65-9a19-4f35acb570ba.webp",
      "pinned": false,
      "draft": false,
      "hide": false,
      "tags": []
    },
    {
      "slug": "whois",
      "title": "关于Whois查询那点事",
      "description": "你有没想过自己部署一个第三方的Whois查询服务？我做过，这里面全是坑！",
      "published": "2025-05-27",
      "image": "https://raw-posts.2x.nz/img/whois-16ab7a68-892e-429e-a0bc-02d829eead82.webp",
      "pinned": false,
      "draft": false,
      "hide": false,
      "tags": []
    },
    {
      "slug": "motrix",
      "title": "浏览器自带下载慢？你需要一个第三方下载器 Motrix！",
      "description": "如果你觉得 Chromium 浏览器自带下载速度太慢，不妨试试免费开源、界面简洁且体验不错的第三方下载器 Motrix。",
      "published": "2025-05-25",
      "image": "https://raw-posts.2x.nz/img/motrix-ee0efba8-8c27-449f-86d0-3e9367d12463.webp",
      "pinned": false,
      "draft": false,
      "hide": false,
      "tags": []
    },
    {
      "slug": "github-webhook",
      "title": "利用WebHook来为你的订阅者推送文章更新信息",
      "description": "针对于静态博客，博主在文章更新后一般需要手动通知订阅者阅读新的文章，本文通过WebHook来实现一个全自动的文章更新通知",
      "published": "2025-05-18",
      "image": "https://raw-posts.2x.nz/img/github-webhook-69389a6f-da33-4f53-be34-408b9f88d9e1.webp",
      "pinned": false,
      "draft": false,
      "hide": false,
      "tags": []
    },
    {
      "slug": "s3cloudrive",
      "title": "让Vercel对接你的S3对象存储（仅下载）",
      "description": "可能很多小伙伴都使用过对象存储，但是他们大部分都没一个图形界面，虽然近年来有了AList这么一个非常全能的服务，但是仍然需要独立服务器，本篇将使用Vercel Function搭建一个精美的S3文件下载",
      "published": "2025-05-04",
      "image": "https://raw-posts.2x.nz/img/s3cloudrive-2025-05-05-07-45-06-image.webp",
      "pinned": false,
      "draft": false,
      "hide": false,
      "tags": []
    },
    {
      "slug": "discourse",
      "title": "手把手教你部署Discourse",
      "description": "Discourse是一个开源的强大的论坛系统，让你马上就能拥有自己的BBS",
      "published": "2025-05-01",
      "image": "https://raw-posts.2x.nz/img/discourse-2025-05-02-22-03-04-image.webp",
      "pinned": false,
      "draft": false,
      "hide": false,
      "tags": []
    },
    {
      "slug": "free-3xui",
      "title": "白嫖免费的3x-ui面板",
      "description": "3x-ui面板是一个非常好用的代理面板，很多人都在使用他，如果有人使用的是默认密码...",
      "published": "2025-04-30",
      "image": "https://raw-posts.2x.nz/img/free-3xui-8e3dd949-97f8-44b1-ab44-e29b64b6c1a8.webp",
      "pinned": false,
      "draft": false,
      "hide": false,
      "tags": []
    },
    {
      "slug": "browser-run-js",
      "title": "浏览器JS运行原理",
      "description": "本文深度剖析浏览器的JS运行原理以及浏览器内部事件处理的根本操作：事件循环",
      "published": "2025-04-24",
      "image": "https://raw-posts.2x.nz/img/browser-run-js-4b040799-eec9-457e-a04e-edf8b7e35b94.webp",
      "pinned": false,
      "draft": false,
      "hide": false,
      "tags": []
    },
    {
      "slug": "gh-proxy",
      "title": "Github全站反向代理搭建指南",
      "description": "搭建Github全站代理的完整指南，涵盖原理讲解与多种部署方案（Cloudflare Worker、EdgeOne Pages、Vercel、VPS+Go）",
      "published": "2025-04-14",
      "image": "https://raw-posts.2x.nz/img/gh-proxy-8bb2d8ae-1703-44e8-9f3b-10b46ab69913.webp",
      "pinned": false,
      "draft": false,
      "hide": false,
      "tags": []
    },
    {
      "slug": "starrail-fast",
      "title": "崩坏星穹铁道全局加速",
      "description": "因为本文涉猎敏感地带，所以仅供专业人士技术讨论，我也不会发布什么一键包，请按照教程自己动手",
      "published": "2025-04-14",
      "image": "https://raw-posts.2x.nz/img/starrail-fast-36f34153-b96f-43ec-911e-8c3d65bc8aa0.webp",
      "pinned": false,
      "draft": false,
      "hide": false,
      "tags": []
    },
    {
      "slug": "bypass-ustc-verifying",
      "title": "绕过USTC的浏览器JS验证",
      "description": "USTC在下载一些资源的时候会使用JS验证，有没有不用无头浏览器绕过的方法呢...",
      "published": "2025-04-03",
      "image": "https://raw-posts.2x.nz/img/bypass-ustc-verifying-58e8e41a-0755-4e6a-ab1e-a9dbaa1042d5.webp",
      "pinned": false,
      "draft": false,
      "hide": false,
      "tags": []
    },
    {
      "slug": "netlify-vercel-proxy",
      "title": "Netlify、Vercel反代网站",
      "description": "会用Netlify，家宽建站不是梦！",
      "published": "2025-04-03",
      "image": "https://raw-posts.2x.nz/img/netlify-vercel-proxy-nvp.webp",
      "pinned": false,
      "draft": false,
      "hide": false,
      "tags": []
    },
    {
      "slug": "reset-bedroom",
      "title": "卧室布局整改记录",
      "description": "起因只是凌晨苏醒的灵机一动，然后...",
      "published": "2025-04-03",
      "image": "https://raw-posts.2x.nz/img/reset-bedroom-37fc1d0b-533f-4905-a7ff-ab906fcb1860.webp",
      "pinned": false,
      "draft": false,
      "hide": false,
      "tags": []
    },
    {
      "slug": "domain-email",
      "title": "自建邮局太麻烦？两种免费域名邮箱方案任你选！",
      "description": "想要一个域名邮箱？这里提供两种免费方案：网易免费企业邮和腾讯企业邮箱，各有优劣，按需选择！",
      "published": "2025-03-11",
      "image": "https://raw-posts.2x.nz/img/domain-email-2025-05-02-21-04-48-image.webp",
      "pinned": false,
      "draft": false,
      "hide": false,
      "tags": []
    },
    {
      "slug": "cf-randompic",
      "title": "Cloudflare R2+Workers！马上搭建自己的云上图床！",
      "description": "使用R2存储图片，通过Workers连接，最后使用a标签或img标签在网页中嵌入展示，全链路上云",
      "published": "2025-03-04",
      "image": "https://raw-posts.2x.nz/img/cf-randompic-QmVgqgoC7G8NLS21WvR8j9gf5amu33XvuV68ZrgM5B9iFf.webp",
      "pinned": false,
      "draft": false,
      "hide": false,
      "tags": []
    },
    {
      "slug": "hugo",
      "title": "Hugo博客搭建教程以及配置调优",
      "description": "Hugo是一个基于Golang的静态博客，相比于Nodejs的Hexo构建效率提升600%，同时也支持低JavaScript特性，SEO更加优化，爬虫更易获取",
      "published": "2025-03-02",
      "image": "https://raw-posts.2x.nz/img/hugo-3d1b097d-7e31-4312-b3e5-d213e2903f4d.webp",
      "pinned": false,
      "draft": false,
      "hide": false,
      "tags": []
    },
    {
      "slug": "autobangumi",
      "title": "教你搭建自己的番剧库，实现自动追番！",
      "description": "使用AutoBangumi连接qBittorrent下载番剧，然后使用刮削软件刮削，设置一遍，享受终身",
      "published": "2025-02-24",
      "image": "https://raw-posts.2x.nz/img/autobangumi-QmXYf2u6BZMseAzjPUhcHsdfdhQpc3XkdjuEi4VvE1BkTn.webp",
      "pinned": false,
      "draft": false,
      "hide": false,
      "tags": []
    },
    {
      "slug": "new-nas",
      "title": "我买了个新NAS...",
      "description": "你可能不知道，我曾经购入过一台N100迷你主机，不久后便卖掉了，不过现在我又购入了，这是为什么呢？",
      "published": "2025-02-22",
      "image": "https://raw-posts.2x.nz/img/new-nas-b8b7d06a-1ca4-4786-a147-5275f57dfb3b.webp",
      "pinned": false,
      "draft": false,
      "hide": false,
      "tags": []
    },
    {
      "slug": "alist-for-aliyun",
      "title": "利用阿里云云函数 FC 搭建AList后端，每月仅需5毛！",
      "description": "阿里云云函数 FC是一个弹性的计算平台，可托管多种服务。搭配AList的前后端分离部署，实现比VPS更低的价格，得到更好的体验",
      "published": "2025-01-12",
      "image": "https://raw-posts.2x.nz/img/alist-for-aliyun-47518d4403328a0fcb716f0e06fc7f608e6c65b7.webp",
      "pinned": false,
      "draft": false,
      "hide": false,
      "tags": []
    },
    {
      "slug": "asf",
      "title": "使用ArchiSteamFarm进行Steam自动挂卡",
      "description": "ArchiSteamFarm是一个Steam自动挂卡工具，它可以自动识别哪些游戏没有挂卡并且自动挂卡，高效率获得Steam集换式卡牌",
      "published": "2024-12-17",
      "image": "https://raw-posts.2x.nz/img/asf-QmPEHve8DdVZdwxAZ26BPgbc6cDCBaKC76VVijqVoMBY2k.webp",
      "pinned": false,
      "draft": false,
      "hide": false,
      "tags": []
    },
    {
      "slug": "rewrite-qa",
      "title": "关于Rewrite MV无法播放\\没有画面的解决方法",
      "description": "Rewrite打完才发现MV一个没看到",
      "published": "2024-11-27",
      "image": "https://raw-posts.2x.nz/img/rewrite-qa-bafybeihhyuk3zjqkisf66swxft4j5srv3g7wozy3zn4ykpsh3cuveuuwb4.webp",
      "pinned": false,
      "draft": false,
      "hide": false,
      "tags": []
    },
    {
      "slug": "vpn",
      "title": "自建正向代理服务器",
      "description": "不要再买机场了！自建它不香吗？!",
      "published": "2024-11-21",
      "image": "https://raw-posts.2x.nz/img/vpn-2024-11-21-08-24-54-image.webp",
      "pinned": false,
      "draft": false,
      "hide": false,
      "tags": []
    },
    {
      "slug": "qqbot",
      "title": "使用NoneBot2搭建你的QQBot！",
      "description": "使用NapCat连接NoneBot2，打造自己的聊天机器人",
      "published": "2024-11-19",
      "image": "https://raw-posts.2x.nz/img/qqbot-QmcMSSKysZmgUCUk9W7hQUvZCtVSFH6hGKHctg99yo1yDE.webp",
      "pinned": false,
      "draft": false,
      "hide": false,
      "tags": []
    }
  ]
}