{
  "page": 5,
  "perPage": 30,
  "total": 158,
  "pageCount": 6,
  "posts": [
    {
      "slug": "phira-mp",
      "title": "Phira多人联机服务器搭建/使用教程",
      "description": "懒人可以直接下载预构建的可执行文件，但如果想获得日志需要自备Rust环境",
      "published": "2024-11-05",
      "image": "https://raw-posts.2x.nz/img/phira-mp-2024-11-06-08-20-39-image.webp",
      "pinned": false,
      "draft": false,
      "hide": false,
      "tags": []
    },
    {
      "slug": "across-nat",
      "title": "究极喂饭教程，手把手教你内网穿透",
      "description": "使用Zerotier，Tailscale，Cloudflare Tunnel可以实现多种内网穿透，其中有适用于个人访问的，也有适用于公众访问的",
      "published": "2024-10-27",
      "image": "https://raw-posts.2x.nz/img/across-nat-2024-10-28-17-00-25-image.webp",
      "pinned": false,
      "draft": false,
      "hide": false,
      "tags": []
    },
    {
      "slug": "n100-pve",
      "title": "N100 - PVE（fnOS+Debian）基建记录",
      "description": "在N100小主机上安装PVE，然后在其中安装飞牛NAS和Debian，实现追番建站分离，并且易扩展，易迁移",
      "published": "2024-10-27",
      "image": "https://raw-posts.2x.nz/img/n100-pve-N100-PVE_cover.webp",
      "pinned": false,
      "draft": false,
      "hide": false,
      "tags": []
    },
    {
      "slug": "ipfs",
      "title": "使用基于IPFS的Fleek部署静态网站、托管图床、部署服务",
      "description": "IPFS是一个多节点的文件托管系统，你可以在上面共享文件、发布网站、而Fleek自动化了这个过程，并且可以链接你的Git存储库",
      "published": "2024-10-16",
      "image": "https://raw-posts.2x.nz/img/ipfs-2024-10-17-09-55-55-image.webp",
      "pinned": false,
      "draft": false,
      "hide": false,
      "tags": []
    },
    {
      "slug": "alist-web",
      "title": "教你把AList的前端部署到CF Pages！让你的AList秒加载！",
      "description": "将AList Web部署到CF Pages可以显著提升访问者的浏览体验，因为静态资源都在CF的边缘节点，而后端使用API交互，而不是由源服务器路由所有流量，既能减轻源服务器的负载，又能使用CF Pages的不回源优势，一箭双雕",
      "published": "2024-10-14",
      "image": "https://raw-posts.2x.nz/img/alist-web-QmSmcktDEJaWdDvFQeuNTJ9ps8R3PcLWyhSrbxoLEq2b2x.webp",
      "pinned": false,
      "draft": false,
      "hide": false,
      "tags": []
    },
    {
      "slug": "replay",
      "title": "傻瓜式AI翻唱软件Replay！选歌！选模型！然后CREATE SONG！",
      "description": "Replay是一个自动化的AI翻唱软件，用户仅需要提供想要翻唱的歌和RVC模型，Replay会自动进行人声分离，并生成AI翻唱音频，对于新手来说十分友好",
      "published": "2024-10-14",
      "image": "https://raw-posts.2x.nz/img/replay-e3b7630170caac0dc92e9f62d510c1a8.webp",
      "pinned": false,
      "draft": false,
      "hide": false,
      "tags": []
    },
    {
      "slug": "fnos",
      "title": "飞牛NAS玩机体验",
      "description": "飞牛NAS系统是一个现代的开源的NAS系统。影视刮削在国内属于TOP1，并且刚需的Docker软件也功能全面易用，博主本人也在使用",
      "published": "2024-10-13",
      "image": "https://raw-posts.2x.nz/img/fnos-QmUBuX9qmsNP1NHeEeUmuPNdS5ctvk4LchcSsFARDC4vZJ.webp",
      "pinned": false,
      "draft": false,
      "hide": false,
      "tags": []
    },
    {
      "slug": "record",
      "title": "记录",
      "description": "一些记录，不定时更新",
      "published": "1998-12-31",
      "image": "https://raw-posts.2x.nz/img/record-record.png",
      "pinned": false,
      "draft": false,
      "hide": false,
      "tags": []
    }
  ]
}