{
  "page": 2,
  "perPage": 30,
  "total": 158,
  "pageCount": 6,
  "posts": [
    {
      "slug": "wx-zfb-card",
      "title": "微信，支付宝，储蓄卡与信用卡的爱恨情仇",
      "description": "在中国，一卡并不能通刷，鉴于二维码的普及，大部分商户使用扫码付款而不是刷卡付款，这可能会导致一些问题...",
      "published": "2025-11-11",
      "image": "https://raw-posts.2x.nz/img/wx-zfb-card-wx-zfb-card.webp",
      "pinned": false,
      "draft": false,
      "hide": false,
      "tags": []
    },
    {
      "slug": "mobile-git",
      "title": "如何在安卓手机上优雅的写我的博客",
      "description": "在桌面端，我们可以用 VS Code 和 Obsidian 写文章；那么到了手机上，是否也能保持同样顺手的写作体验？",
      "published": "2025-11-10",
      "image": "https://raw-posts.2x.nz/img/mobile-git-Screenshot_2025-11-11-14-04-23-56_a2e3670364a4153bdb03dad30c8d4108.webp",
      "pinned": false,
      "draft": false,
      "hide": false,
      "tags": []
    },
    {
      "slug": "check-notebook",
      "title": "限制级笔记本电脑验机教程",
      "description": "众所周知，笔记本电脑在激活后就不能七天无理由退了，但是不联网又很难测，那么有没有什么两全其美的办法呢？",
      "published": "2025-11-09",
      "image": "https://raw-posts.2x.nz/img/check-notebook-Screenshot_2025-11-11-08-12-40-74_4fbb30eb7b71661.webp",
      "pinned": false,
      "draft": false,
      "hide": false,
      "tags": []
    },
    {
      "slug": "unknown-upload",
      "title": "自建一个匿名文件上传终结点",
      "description": "你有没有遇到过一种场景？在学校/公司电脑需要带一个文件走，但是又不想安装远程软件。那么今天，教你无需U盘，让你在任何地方将你想要的文件带回你家！",
      "published": "2025-11-08",
      "image": "https://raw-posts.2x.nz/img/unknown-upload-unknown-upload.webp",
      "pinned": false,
      "draft": false,
      "hide": false,
      "tags": []
    },
    {
      "slug": "zte-f450-bridge",
      "title": "ZTE光猫F450不拆机获取超密",
      "description": "朋友老早之前就想将光猫改为桥接，今天终于整上了，但奈何没有超密，不过，在互联网的帮助下，我们最终找到了解决方案",
      "published": "2025-11-01",
      "image": "https://raw-posts.2x.nz/img/zte-f450-bridge-zte-f450-bridge-4.webp",
      "pinned": false,
      "draft": false,
      "hide": false,
      "tags": []
    },
    {
      "slug": "hook-steam-drm",
      "title": "如何绕过Steam直接启动Steam上的游戏？",
      "description": "经常买Steam单机游戏的小伙伴们都知道，Steam上的大部分游戏在启动时都要求Steam在后台运行，那么如果我只是在玩一个单机游戏又不想带Steam启动要怎么办呢？这篇文章来帮你",
      "published": "2025-10-15",
      "image": "https://raw-posts.2x.nz/img/hook-steam-drm-hook-steam-drm.webp",
      "pinned": false,
      "draft": false,
      "hide": false,
      "tags": []
    },
    {
      "slug": "index-tts2",
      "title": "手把手教你克隆音色！",
      "description": "仅需几秒的语音就能克隆音色，无需繁琐配置，一键启动！随时随地做蓝底神人小视频！",
      "published": "2025-10-13",
      "image": "https://raw-posts.2x.nz/img/index-tts2-index-tts2-4.webp",
      "pinned": false,
      "draft": false,
      "hide": false,
      "tags": []
    },
    {
      "slug": "rvc",
      "title": "手把手教你AI翻唱！",
      "description": "利用RVC训练音色模型然后使用Replay直出AI翻唱！",
      "published": "2025-10-13",
      "image": "https://raw-posts.2x.nz/img/rvc-rvc-19.webp",
      "pinned": false,
      "draft": false,
      "hide": false,
      "tags": []
    },
    {
      "slug": "first-pc",
      "title": "人生中的第一台自己组装的台式！键盘亮显示器必亮！",
      "description": "很早就想装一个台式常驻家里了，这次阴差阳错的获得了一个机会，至于为什么我称它为阴差阳错，请看VCR",
      "published": "2025-10-10",
      "image": "https://raw-posts.2x.nz/img/first-pc-IMG20251010160613.webp",
      "pinned": false,
      "draft": false,
      "hide": false,
      "tags": []
    },
    {
      "slug": "manosaba-unzip",
      "title": "魔法少女的魔女审判解包（Unity通用解包方案）",
      "description": "魔判这部作品真的很不错，大家可以去Steam搜索魔法少女的魔女审判下载下来玩玩",
      "published": "2025-10-05",
      "image": "https://raw-posts.2x.nz/img/manosaba-unzip-212792e5-8634-4121-984b-c3477f463897.webp",
      "pinned": false,
      "draft": false,
      "hide": false,
      "tags": []
    },
    {
      "slug": "mac-gal",
      "title": "在Mac上玩GalGame竟如此简单！",
      "description": "虽然说用了Mac就等于远离了所有游戏，但是偶尔还是想打打Gal放松放松的，那么有没有傻瓜式的方法让我们可以抱着Mac在床上嗯嗯啊啊呢，有的！",
      "published": "2025-09-30",
      "image": "https://raw-posts.2x.nz/img/mac-gal-d5441bcd48dca4226efe40ba6d522551.webp",
      "pinned": false,
      "draft": false,
      "hide": false,
      "tags": []
    },
    {
      "slug": "mac",
      "title": "我为什么要买个Mac",
      "description": "Mac的好处是：便携、续航长、性能高。缺点是贵、要重新学一个新系统的操作。仅对我个人，我认为我从Win换到Mac是一个正确的决定",
      "published": "2025-09-30",
      "image": "https://raw-posts.2x.nz/img/mac-mac.webp",
      "pinned": false,
      "draft": false,
      "hide": false,
      "tags": []
    },
    {
      "slug": "fuwari",
      "title": "Fuwari静态博客搭建教程",
      "description": "Fuwari 是一个静态博客框架，配合 Cloudflare Pages 可以快速搭建一个轻量、安全且易维护的个人博客",
      "published": "2025-09-16",
      "image": "https://raw-posts.2x.nz/img/fuwari-f286ef4d-326c-4c7c-8a1e-ed150937a12b.webp",
      "pinned": false,
      "draft": false,
      "hide": false,
      "tags": []
    },
    {
      "slug": "obsidian",
      "title": "现代！易上手！高效！且社区支持的超高校级的MarkDown编辑器！",
      "description": "曾经我使用MarkText编写文章，今天收到朋友推荐，来尝试一下黑曜石（Obsidian），发现真的很好用，且社区完善！",
      "published": "2025-09-16",
      "image": "https://raw-posts.2x.nz/img/obsidian-obsidian.webp",
      "pinned": false,
      "draft": false,
      "hide": false,
      "tags": []
    },
    {
      "slug": "disable-astro-generating-optimized-images",
      "title": "禁用Astro跟弱智一般的静态构建图像优化",
      "description": "折腾了整整一天，终于解决了这傻逼Astro对于静态构建自作聪明的图片优化了，这不仅能提高构建速度，还可以减少无谓的CPU资源消耗，更环保，也更符合Unix哲学",
      "published": "2025-09-09",
      "image": null,
      "pinned": false,
      "draft": false,
      "hide": false,
      "tags": []
    },
    {
      "slug": "goedge",
      "title": "GoEdge自建CDN系统踩坑记录",
      "description": "卧槽，一不小心搞到了3台免费VPS，可是不用容易被回收，这可咋办啊！欸？不如让他们都干点活吧！",
      "published": "2025-09-08",
      "image": null,
      "pinned": false,
      "draft": false,
      "hide": false,
      "tags": []
    },
    {
      "slug": "reality",
      "title": "Reality协议的代理服务端搭建教程",
      "description": "Reality协议是目前最抗检测的一种代理协议",
      "published": "2025-09-08",
      "image": "https://raw-posts.2x.nz/img/reality-709453e8-3a6a-4e2c-8618-fcf542ee0d37.webp",
      "pinned": false,
      "draft": false,
      "hide": false,
      "tags": []
    },
    {
      "slug": "oci",
      "title": "Oracle（甲骨文云）踩坑记录",
      "description": "在钞能力的帮助下也是成功薅到了一个甲骨文账号，上手把玩发现坑点挺多的，遂记录",
      "published": "2025-09-07",
      "image": null,
      "pinned": false,
      "draft": false,
      "hide": false,
      "tags": []
    },
    {
      "slug": "acg-randompic-api",
      "title": "公开架构，我的二次元随机图API是怎么做的",
      "description": "发现很多小伙伴也想搭建一个自己的随机图API，这里我就公开一下我的架构，打磨2年了，供大家参考~",
      "published": "2025-09-05",
      "image": "https://raw-posts.2x.nz/img/acg-randompic-api-2025-08-31-04-09-37-image.webp",
      "pinned": false,
      "draft": false,
      "hide": false,
      "tags": []
    },
    {
      "slug": "rename",
      "title": "记录一下批量重命名插件咋写的",
      "description": "因为重装系统了，一些小插件丢失了，要重写，然后又把之前的坑踩了一遍",
      "published": "2025-09-05",
      "image": null,
      "pinned": false,
      "draft": false,
      "hide": false,
      "tags": []
    },
    {
      "slug": "uptimerobot",
      "title": "UptimeRobot，无需自托管的服务监控！",
      "description": "之前曾用过BetterStack这样的云端服务监控，但是免费计划的监控数量仅有10个，而今天推荐的这个支持高达50个！",
      "published": "2025-09-03",
      "image": null,
      "pinned": false,
      "draft": false,
      "hide": false,
      "tags": []
    },
    {
      "slug": "mic",
      "title": "给想买麦克风的朋友一些建议",
      "description": "这几年我折腾过不少麦克风：从几千元的舒尔、RODE，到几百元的闪克、绿联，甚至一百出头的带麦半入耳耳机。这里就结合实际体验，给大家总结一些选购时常见的坑点。",
      "published": "2025-09-02",
      "image": null,
      "pinned": false,
      "draft": false,
      "hide": false,
      "tags": []
    },
    {
      "slug": "nezha",
      "title": "哪吒监控搭建教程",
      "description": "想不想在上帝视角监测你的服务器？顺便再把Uptime Kuma的活也干了！",
      "published": "2025-09-02",
      "image": null,
      "pinned": false,
      "draft": false,
      "hide": false,
      "tags": []
    },
    {
      "slug": "zeabur",
      "title": "想玩k3s？Zeabur来帮你！",
      "description": "Zeabur是一个PaaS服务，它可以让你将自己的服务器托管上去，然后在网页上进行管理，就像传统服务器面板一样，这些都是免费！",
      "published": "2025-09-02",
      "image": null,
      "pinned": false,
      "draft": false,
      "hide": false,
      "tags": []
    },
    {
      "slug": "astrov3-redirects",
      "title": "利用Astrov3的原生重定向来实现各种各样的高级重定向！",
      "description": "曾经，我使用Cloudflare Pages Redirects来实现我的个人短链重定向，而现在我发现我可以直接将它集成到我的Astro博客",
      "published": "2025-09-01",
      "image": null,
      "pinned": false,
      "draft": false,
      "hide": false,
      "tags": []
    },
    {
      "slug": "gemini-nano-banana",
      "title": "Google最新的AI生图模型 Nano Banana！立绘转真人！一键P图！",
      "description": "哎我造了村里孩子吃上城里货了，这你扯不扯，这AI生图方便好，无需部署不费脑，大口大口使劲造，鼻歪眼斜使劲笑",
      "published": "2025-09-01",
      "image": "https://raw-posts.2x.nz/img/gemini-nano-banana-2025-09-01-16-39-17-5976a1f7-3f14-4987-aa60-3257b05f8b7b.webp",
      "pinned": false,
      "draft": false,
      "hide": false,
      "tags": []
    },
    {
      "slug": "vercel-redirects",
      "title": "配置 Vercel.json 以支持服务器级别的重定向",
      "description": "如果你的站点（无论静态/动态）正在使用Vercel，则配置重定向是一件非常轻松的事情",
      "published": "2025-09-01",
      "image": null,
      "pinned": false,
      "draft": false,
      "hide": false,
      "tags": []
    },
    {
      "slug": "cyberduck",
      "title": "Cyberduck - 简洁好用的S3文件浏览器",
      "description": "对象存储是一个非常好用的东西，但是要如何方便的上传文件呢？",
      "published": "2025-08-30",
      "image": null,
      "pinned": false,
      "draft": false,
      "hide": false,
      "tags": []
    },
    {
      "slug": "translations-betterstack",
      "title": "我给BetterStack的状态页面汉化了",
      "description": "闲着没事打开 BetterStack 的状态页面时，我发现里面一会儿中文、一会儿英文，索性就把它整体汉化了一遍。",
      "published": "2025-08-28",
      "image": null,
      "pinned": false,
      "draft": false,
      "hide": false,
      "tags": []
    },
    {
      "slug": "umami-local-2-render",
      "title": "记录迁移Umami，从本地到云",
      "description": "之前的站点统计部署在家里云NAS，通过IPv6回源，而现在我将他迁移到了Render+Supabase",
      "published": "2025-08-28",
      "image": null,
      "pinned": false,
      "draft": false,
      "hide": false,
      "tags": []
    }
  ]
}