{
  "page": 0,
  "perPage": 30,
  "total": 158,
  "pageCount": 6,
  "posts": [
    {
      "slug": "pin",
      "title": "加群向导",
      "description": "关于如何联系二叉树树~",
      "published": "2025-05-23",
      "image": "https://raw-posts.2x.nz/img/pin-cute.webp",
      "pinned": true,
      "draft": false,
      "hide": false,
      "tags": []
    },
    {
      "slug": "svaf-next-seo",
      "title": "纯前端 SPA 的 SEO 自救指南：我是如何让博客和论坛被百度谷歌乖乖收录的",
      "description": "众所周知，现在流行前后端分离，而 SPA 更是许多个人网站的首选。但 SPA 天生的 SEO 劣势（爬虫不执行 JS）让很多人头疼不已。这篇文章就来复盘一下，",
      "published": "2026-07-22",
      "image": "https://raw-posts.2x.nz/img/cover.png",
      "pinned": false,
      "draft": false,
      "hide": false,
      "tags": [
        "技术"
      ]
    },
    {
      "slug": "micro-blog-service",
      "title": "整个博客非得塞到网站源码吗？不！纯前端的前后端分离全部搞定！",
      "description": "很久很久以前，我的网站一直都是把博文和图片资源当做源码，封装在整个源码仓库里的。这会导致仅仅更新一行代码，CI/CD",
      "published": "2026-07-17",
      "image": "https://raw-posts.2x.nz/img/cover.png",
      "pinned": false,
      "draft": false,
      "hide": false,
      "tags": [
        "技术"
      ]
    },
    {
      "slug": "first",
      "title": "第一篇 PagesCMS 构建的文章",
      "description": "PagesCMS可以代理您操作Github来撰写文章或存储任何内容，然后您可以接入各类网站生成器来上线您的博客/电商/社交网站",
      "published": "2026-07-04",
      "image": "https://raw-posts.2x.nz/img/46cfdaa4c94214224e36faf9118e2c50 - 副本.jpg",
      "pinned": false,
      "draft": false,
      "hide": false,
      "tags": [
        "First"
      ]
    },
    {
      "slug": "pagescms",
      "title": "神了！PagesCMS拯救静态博客！",
      "description": "PagesCMS可以代理读写您的Github仓库，帮你创建，编辑文章，最后通过你喜欢的CDN发布他们！",
      "published": "2026-07-04",
      "image": "https://raw-posts.2x.nz/img/b336d0ff-34b2-418f-9b81-d9c7c61db739.png",
      "pinned": false,
      "draft": false,
      "hide": false,
      "tags": []
    },
    {
      "slug": "emdash",
      "title": "EmDash，拉完了",
      "description": "昨晚看到有群U说什么能部署在CF的WordPress，我看看怎么个事！",
      "published": "2026-07-03",
      "image": "https://raw-posts.2x.nz/img/emdash-index.png",
      "pinned": false,
      "draft": false,
      "hide": false,
      "tags": []
    },
    {
      "slug": "move-linux",
      "title": "迁移Linux到新硬盘",
      "description": "从旧硬盘迁移Linux到新硬盘，包括硬盘对拷、UUID修复、GRUB引导重建和fstab更新",
      "published": "2026-06-12",
      "image": "https://raw-posts.2x.nz/img/move-linux-cover7.png",
      "pinned": false,
      "draft": false,
      "hide": false,
      "tags": []
    },
    {
      "slug": "9060xt",
      "title": "AMD 9060XT测评",
      "description": "",
      "published": "2026-06-06",
      "image": "https://raw-posts.2x.nz/img/9060xt-cover-5.png",
      "pinned": false,
      "draft": false,
      "hide": false,
      "tags": []
    },
    {
      "slug": "wtfmycfaccountlostthe2xssisshabi",
      "title": "二叉树树你个大傻逼",
      "description": "本文讲述了一个傻逼从丢失CF账号到放弃找回到创建新号被迫迁移关键数据以及最终将部分服务从Serverless迁移到Server，最后，天亮了",
      "published": "2026-06-05",
      "image": "https://raw-posts.2x.nz/img/wtfmycfaccountlostthe2xssisshabi-index.png",
      "pinned": false,
      "draft": false,
      "hide": false,
      "tags": []
    },
    {
      "slug": "fuck-mswin11-rdp",
      "title": "新版Win11远程桌面/RDP突然连不上？！百分百教你解决！",
      "description": "今天手头突然要用一个老的Win7 32位系统来远程开发，自然是无法用UU远程了，然后RDP又给我整这出...",
      "published": "2026-05-22",
      "image": "https://raw-posts.2x.nz/img/fuck-mswin11-rdp-fkms.png",
      "pinned": false,
      "draft": false,
      "hide": false,
      "tags": []
    },
    {
      "slug": "ai-wife",
      "title": "手把手教你跑一个二次元AI老婆！另附自然语言生图教程！",
      "description": "极！其！简！单！傻！子！都！会！本期将手把手教你从软件安装，到模型配置再到出图，百分百画出惊艳的图片！",
      "published": "2026-04-26",
      "image": "https://raw-posts.2x.nz/img/ai-wife-index.png",
      "pinned": false,
      "draft": false,
      "hide": false,
      "tags": []
    },
    {
      "slug": "astro-to-svelte",
      "title": "网站全面升级为纯Svelte！好处都有啥？都踩了哪些坑？",
      "description": "自2024年以来，本站一直使用 Astro/Fuwari 来开发，但从该项目不再是一个纯粹的静态博客站之后，基于Astro的开发也越来越艰难。今天，我们来聊聊这次大更新吧！",
      "published": "2026-04-24",
      "image": "https://raw-posts.2x.nz/img/astro-to-svelte-svelte.png",
      "pinned": false,
      "draft": false,
      "hide": false,
      "tags": []
    },
    {
      "slug": "improve-dev-speed",
      "title": "俗话都说项目写久了会变成史山...今天我们来铲史...",
      "description": "什么？我只想改一个字看看预览都要等1分钟？这是什么神人项目啊？！",
      "published": "2026-04-19",
      "image": "https://raw-posts.2x.nz/img/improve-dev-speed-astro.png",
      "pinned": false,
      "draft": false,
      "hide": false,
      "tags": []
    },
    {
      "slug": "sshfs",
      "title": "将你的Linux硬盘映射到Windows？",
      "description": "如何像Windows一样管理Linux文件和开发？SSHFS来帮你！",
      "published": "2026-04-18",
      "image": "https://raw-posts.2x.nz/img/sshfs-Linux-win.png",
      "pinned": false,
      "draft": false,
      "hide": false,
      "tags": []
    },
    {
      "slug": "self-host-cdn",
      "title": "让我们自建一个自己的CDN！",
      "description": "你有没有想过从0通过各种开源项目自己搭建一个CDN？今天就来教你！",
      "published": "2026-04-11",
      "image": "https://raw-posts.2x.nz/img/self-host-cdn-scdn.png",
      "pinned": false,
      "draft": false,
      "hide": false,
      "tags": []
    },
    {
      "slug": "what-the-fuck-claw-replit",
      "title": "WTF？免费优质线路2c4g VPS！免费GLM模型无限用！免费Opus 4.6！",
      "description": "2026年4月6日，这天凌晨...神了...",
      "published": "2026-04-05",
      "image": "https://raw-posts.2x.nz/img/what-the-fuck-claw-replit-claude.png",
      "pinned": false,
      "draft": false,
      "hide": false,
      "tags": []
    },
    {
      "slug": "check-nat-webrtc",
      "title": "握草，用浏览器检测你的NAT类型？！",
      "description": "众所周知，NAT类型的检测并不是什么门槛，但是，如果我说纯浏览器也可以实现检测呢...",
      "published": "2026-04-04",
      "image": "https://raw-posts.2x.nz/img/check-nat-webrtc-nat.png",
      "pinned": false,
      "draft": false,
      "hide": false,
      "tags": []
    },
    {
      "slug": "email-posts-sub",
      "title": "手搓一个电子邮件订阅器！",
      "description": "你可曾想过手搓一个基于邮件形式的文章订阅器？读者只需告诉系统邮箱，之后的文章更新都会发一封邮件来通知他们！",
      "published": "2026-04-03",
      "image": "https://raw-posts.2x.nz/img/email-posts-sub-email.png",
      "pinned": false,
      "draft": false,
      "hide": false,
      "tags": []
    },
    {
      "slug": "concurrently",
      "title": "你在做全栈吗？你想要前后端统一的热重载吗？",
      "description": "经常做全栈的小伙伴们都知道，写完后端看效果要dev，写完前端看效果也要dev，那么有没有一劳永逸的解决方案呢？",
      "published": "2026-03-24",
      "image": "https://raw-posts.2x.nz/img/concurrently-concurrently.png",
      "pinned": false,
      "draft": false,
      "hide": false,
      "tags": []
    },
    {
      "slug": "rj45",
      "title": "教你手搓网线！打好人生第一个水晶头！",
      "description": "现代生活离不开网络，你想要自己搓一根网线吗？",
      "published": "2026-03-23",
      "image": "https://raw-posts.2x.nz/img/rj45-rj45.png",
      "pinned": false,
      "draft": false,
      "hide": false,
      "tags": []
    },
    {
      "slug": "snippets",
      "title": "你...买 Cloudflare Pro 了吗？来玩超级牛逼的 Snippets ！",
      "description": "Snippets 是 Cloudflare 提供的不限量不计费的轻量Worker，我们可以拿她干不少有趣的业务！",
      "published": "2026-03-18",
      "image": "https://raw-posts.2x.nz/img/snippets-snippets-1.png",
      "pinned": false,
      "draft": false,
      "hide": false,
      "tags": []
    },
    {
      "slug": "gh-cf",
      "title": "终极版！国内免梯上Github！",
      "description": "巨简单！1分钟自建你的Github代理！",
      "published": "2026-03-10",
      "image": "https://raw-posts.2x.nz/img/gh-cf-cf-gh.png",
      "pinned": false,
      "draft": false,
      "hide": false,
      "tags": []
    },
    {
      "slug": "obs-realtime-process-name",
      "title": "如何在直播中让你的观众实时了解你在用什么软件？",
      "description": "通过持续监测当前前台进程和指定程序的窗口标题，并将结果写入 TXT 文件，就可以让 OBS 实时向观众展示你正在使用的软件或当前播放的内容。",
      "published": "2026-03-07",
      "image": "https://raw-posts.2x.nz/img/obs-realtime-process-name-OBS-RT-PC.png",
      "pinned": false,
      "draft": false,
      "hide": false,
      "tags": []
    },
    {
      "slug": "codex-unlimited-blade-works",
      "title": "Codex！无限剑制！",
      "description": "多的不说，仅做记录",
      "published": "2026-03-06",
      "image": "https://raw-posts.2x.nz/img/codex-unlimited-blade-works-codex.png",
      "pinned": false,
      "draft": false,
      "hide": false,
      "tags": []
    },
    {
      "slug": "ai-agent",
      "title": "AI Agent 二三事",
      "description": "从实战角度对比 AI IDE 与 AI Agent，并演示如何用 ZCF 快速安装和配置 Codex。",
      "published": "2026-03-05",
      "image": "https://raw-posts.2x.nz/img/ai-agent-ai-agent.png",
      "pinned": false,
      "draft": false,
      "hide": false,
      "tags": []
    },
    {
      "slug": "cfvideo",
      "title": "教你在Cloudflare上原生托管视频！自建YouTube！",
      "description": "你知道吗？Cloudflare上也是可以“原生”托管视频的！",
      "published": "2026-02-26",
      "image": "https://raw-posts.2x.nz/img/cfvideo-cfvideo.png",
      "pinned": false,
      "draft": false,
      "hide": false,
      "tags": []
    },
    {
      "slug": "win11-native-nvme",
      "title": "一行命令拉爆你的Win11硬盘4K随机性能！",
      "description": "你知道吗？其实Windows一直都在让NVMe硬盘以兼容模式跑！",
      "published": "2026-02-26",
      "image": "https://raw-posts.2x.nz/img/win11-native-nvme-win11-native-nvme.png",
      "pinned": false,
      "draft": false,
      "hide": false,
      "tags": []
    },
    {
      "slug": "jkw",
      "title": "极客湾手机大横评补档",
      "description": "大手来了，我说大手来了你尔朵隆吗",
      "published": "2026-02-25",
      "image": "https://raw-posts.2x.nz/img/jkw-jkw.png",
      "pinned": false,
      "draft": false,
      "hide": false,
      "tags": []
    },
    {
      "slug": "bitwarden-com",
      "title": "魔幻嫁接！免费用上完全体的Bitwarden！",
      "description": "你是否正在寻找一个密码库？又不想自托管？",
      "published": "2026-02-23",
      "image": "https://raw-posts.2x.nz/img/bitwarden-com-bitwarden.png",
      "pinned": false,
      "draft": false,
      "hide": false,
      "tags": []
    },
    {
      "slug": "google-adsense",
      "title": "保姆级通过Google Adsense的教程！",
      "description": "你是否正在运营一个脍炙人口的网站？手把手教你变现！",
      "published": "2026-02-23",
      "image": "https://raw-posts.2x.nz/img/google-adsense-google-adsense1.png",
      "pinned": false,
      "draft": false,
      "hide": false,
      "tags": []
    }
  ]
}